^C:\USERS\JFERR\ONEDRIVE\DOCUMENTOS\PIRATEMASTER\PIRATEMASTER\COMMAND.CPP
/c /I"C:\USERS\JFERR\SOURCE\REPOS\PIRATEMASTER\SFML-2.5.1\INCLUDE" /Zi /nologo /W3 /WX- /diagnostics:column /sdl /O2 /Oi /Oy- /GL /D WIN32 /D NDEBUG /D _CONSOLE /D _UNICODE /D UNICODE /Gm- /EHsc /MD /GS /Gy /fp:precise /permissive- /Zc:wchar_t /Zc:forScope /Zc:inline /Fo"RELEASE\\" /Fd"RELEASE\VC142.PDB" /Gd /TP /analyze- /FC C:\USERS\JFERR\ONEDRIVE\DOCUMENTOS\PIRATEMASTER\PIRATEMASTER\COMMAND.CPP
^C:\USERS\JFERR\ONEDRIVE\DOCUMENTOS\PIRATEMASTER\PIRATEMASTER\COMMANDQUEUE.CPP
/c /I"C:\USERS\JFERR\SOURCE\REPOS\PIRATEMASTER\SFML-2.5.1\INCLUDE" /Zi /nologo /W3 /WX- /diagnostics:column /sdl /O2 /Oi /Oy- /GL /D WIN32 /D NDEBUG /D _CONSOLE /D _UNICODE /D UNICODE /Gm- /EHsc /MD /GS /Gy /fp:precise /permissive- /Zc:wchar_t /Zc:forScope /Zc:inline /Fo"RELEASE\\" /Fd"RELEASE\VC142.PDB" /Gd /TP /analyze- /FC C:\USERS\JFERR\ONEDRIVE\DOCUMENTOS\PIRATEMASTER\PIRATEMASTER\COMMANDQUEUE.CPP
^C:\USERS\JFERR\ONEDRIVE\DOCUMENTOS\PIRATEMASTER\PIRATEMASTER\ENTITY.CPP
/c /I"C:\USERS\JFERR\SOURCE\REPOS\PIRATEMASTER\SFML-2.5.1\INCLUDE" /Zi /nologo /W3 /WX- /diagnostics:column /sdl /O2 /Oi /Oy- /GL /D WIN32 /D NDEBUG /D _CONSOLE /D _UNICODE /D UNICODE /Gm- /EHsc /MD /GS /Gy /fp:precise /permissive- /Zc:wchar_t /Zc:forScope /Zc:inline /Fo"RELEASE\\" /Fd"RELEASE\VC142.PDB" /Gd /TP /analyze- /FC C:\USERS\JFERR\ONEDRIVE\DOCUMENTOS\PIRATEMASTER\PIRATEMASTER\ENTITY.CPP
^C:\USERS\JFERR\ONEDRIVE\DOCUMENTOS\PIRATEMASTER\PIRATEMASTER\GAME.CPP
/c /I"C:\USERS\JFERR\SOURCE\REPOS\PIRATEMASTER\SFML-2.5.1\INCLUDE" /Zi /nologo /W3 /WX- /diagnostics:column /sdl /O2 /Oi /Oy- /GL /D WIN32 /D NDEBUG /D _CONSOLE /D _UNICODE /D UNICODE /Gm- /EHsc /MD /GS /Gy /fp:precise /permissive- /Zc:wchar_t /Zc:forScope /Zc:inline /Fo"RELEASE\\" /Fd"RELEASE\VC142.PDB" /Gd /TP /analyze- /FC C:\USERS\JFERR\ONEDRIVE\DOCUMENTOS\PIRATEMASTER\PIRATEMASTER\GAME.CPP
^C:\USERS\JFERR\ONEDRIVE\DOCUMENTOS\PIRATEMASTER\PIRATEMASTER\INPUTHANDLER.CPP
/c /I"C:\USERS\JFERR\SOURCE\REPOS\PIRATEMASTER\SFML-2.5.1\INCLUDE" /Zi /nologo /W3 /WX- /diagnostics:column /sdl /O2 /Oi /Oy- /GL /D WIN32 /D NDEBUG /D _CONSOLE /D _UNICODE /D UNICODE /Gm- /EHsc /MD /GS /Gy /fp:precise /permissive- /Zc:wchar_t /Zc:forScope /Zc:inline /Fo"RELEASE\\" /Fd"RELEASE\VC142.PDB" /Gd /TP /analyze- /FC C:\USERS\JFERR\ONEDRIVE\DOCUMENTOS\PIRATEMASTER\PIRATEMASTER\INPUTHANDLER.CPP
^C:\USERS\JFERR\ONEDRIVE\DOCUMENTOS\PIRATEMASTER\PIRATEMASTER\MAIN.CPP
/c /I"C:\USERS\JFERR\SOURCE\REPOS\PIRATEMASTER\SFML-2.5.1\INCLUDE" /Zi /nologo /W3 /WX- /diagnostics:column /sdl /O2 /Oi /Oy- /GL /D WIN32 /D NDEBUG /D _CONSOLE /D _UNICODE /D UNICODE /Gm- /EHsc /MD /GS /Gy /fp:precise /permissive- /Zc:wchar_t /Zc:forScope /Zc:inline /Fo"RELEASE\\" /Fd"RELEASE\VC142.PDB" /Gd /TP /analyze- /FC C:\USERS\JFERR\ONEDRIVE\DOCUMENTOS\PIRATEMASTER\PIRATEMASTER\MAIN.CPP
^C:\USERS\JFERR\ONEDRIVE\DOCUMENTOS\PIRATEMASTER\PIRATEMASTER\MOVEMENTCOMMAND.CPP
/c /I"C:\USERS\JFERR\SOURCE\REPOS\PIRATEMASTER\SFML-2.5.1\INCLUDE" /Zi /nologo /W3 /WX- /diagnostics:column /sdl /O2 /Oi /Oy- /GL /D WIN32 /D NDEBUG /D _CONSOLE /D _UNICODE /D UNICODE /Gm- /EHsc /MD /GS /Gy /fp:precise /permissive- /Zc:wchar_t /Zc:forScope /Zc:inline /Fo"RELEASE\\" /Fd"RELEASE\VC142.PDB" /Gd /TP /analyze- /FC C:\USERS\JFERR\ONEDRIVE\DOCUMENTOS\PIRATEMASTER\PIRATEMASTER\MOVEMENTCOMMAND.CPP
^C:\USERS\JFERR\ONEDRIVE\DOCUMENTOS\PIRATEMASTER\PIRATEMASTER\PAUSEDPOPUP.CPP
/c /I"C:\USERS\JFERR\SOURCE\REPOS\PIRATEMASTER\SFML-2.5.1\INCLUDE" /Zi /nologo /W3 /WX- /diagnostics:column /sdl /O2 /Oi /Oy- /GL /D WIN32 /D NDEBUG /D _CONSOLE /D _UNICODE /D UNICODE /Gm- /EHsc /MD /GS /Gy /fp:precise /permissive- /Zc:wchar_t /Zc:forScope /Zc:inline /Fo"RELEASE\\" /Fd"RELEASE\VC142.PDB" /Gd /TP /analyze- /FC C:\USERS\JFERR\ONEDRIVE\DOCUMENTOS\PIRATEMASTER\PIRATEMASTER\PAUSEDPOPUP.CPP
^C:\USERS\JFERR\ONEDRIVE\DOCUMENTOS\PIRATEMASTER\PIRATEMASTER\PLAYER.CPP
/c /I"C:\USERS\JFERR\SOURCE\REPOS\PIRATEMASTER\SFML-2.5.1\INCLUDE" /Zi /nologo /W3 /WX- /diagnostics:column /sdl /O2 /Oi /Oy- /GL /D WIN32 /D NDEBUG /D _CONSOLE /D _UNICODE /D UNICODE /Gm- /EHsc /MD /GS /Gy /fp:precise /permissive- /Zc:wchar_t /Zc:forScope /Zc:inline /Fo"RELEASE\\" /Fd"RELEASE\VC142.PDB" /Gd /TP /analyze- /FC C:\USERS\JFERR\ONEDRIVE\DOCUMENTOS\PIRATEMASTER\PIRATEMASTER\PLAYER.CPP
^C:\USERS\JFERR\ONEDRIVE\DOCUMENTOS\PIRATEMASTER\PIRATEMASTER\SCENENODE.CPP
/c /I"C:\USERS\JFERR\SOURCE\REPOS\PIRATEMASTER\SFML-2.5.1\INCLUDE" /Zi /nologo /W3 /WX- /diagnostics:column /sdl /O2 /Oi /Oy- /GL /D WIN32 /D NDEBUG /D _CONSOLE /D _UNICODE /D UNICODE /Gm- /EHsc /MD /GS /Gy /fp:precise /permissive- /Zc:wchar_t /Zc:forScope /Zc:inline /Fo"RELEASE\\" /Fd"RELEASE\VC142.PDB" /Gd /TP /analyze- /FC C:\USERS\JFERR\ONEDRIVE\DOCUMENTOS\PIRATEMASTER\PIRATEMASTER\SCENENODE.CPP
^C:\USERS\JFERR\ONEDRIVE\DOCUMENTOS\PIRATEMASTER\PIRATEMASTER\SPRITENODE.CPP
/c /I"C:\USERS\JFERR\SOURCE\REPOS\PIRATEMASTER\SFML-2.5.1\INCLUDE" /Zi /nologo /W3 /WX- /diagnostics:column /sdl /O2 /Oi /Oy- /GL /D WIN32 /D NDEBUG /D _CONSOLE /D _UNICODE /D UNICODE /Gm- /EHsc /MD /GS /Gy /fp:precise /permissive- /Zc:wchar_t /Zc:forScope /Zc:inline /Fo"RELEASE\\" /Fd"RELEASE\VC142.PDB" /Gd /TP /analyze- /FC C:\USERS\JFERR\ONEDRIVE\DOCUMENTOS\PIRATEMASTER\PIRATEMASTER\SPRITENODE.CPP
^C:\USERS\JFERR\ONEDRIVE\DOCUMENTOS\PIRATEMASTER\PIRATEMASTER\WORLD.CPP
/c /I"C:\USERS\JFERR\SOURCE\REPOS\PIRATEMASTER\SFML-2.5.1\INCLUDE" /Zi /nologo /W3 /WX- /diagnostics:column /sdl /O2 /Oi /Oy- /GL /D WIN32 /D NDEBUG /D _CONSOLE /D _UNICODE /D UNICODE /Gm- /EHsc /MD /GS /Gy /fp:precise /permissive- /Zc:wchar_t /Zc:forScope /Zc:inline /Fo"RELEASE\\" /Fd"RELEASE\VC142.PDB" /Gd /TP /analyze- /FC C:\USERS\JFERR\ONEDRIVE\DOCUMENTOS\PIRATEMASTER\PIRATEMASTER\WORLD.CPP
